
************* 2/23/2021 12:53:30 PM *************
2/23/2021 12:53:30 PM-- API Call Success.------API called http://localhost:44762//search/createindex/etextindex01/PRODUCTION/4/13627/13627 
***********************************************

************* 2/23/2021 12:53:30 PM *************
Indexer|4|etextindex01|4|13627|Manually|http://localhost:44762/|2|13627|PRODUCTION|bG9jYWxob3N0OjY3NjZ8|0|600000
***********************************************
