
************* 2/5/2021 11:38:09 AM *************
2/5/2021 11:38:09 AM-- API Call Success.------API called http://localhost:44762//search/createindex/etextcatalogindex34r/PREVIEW/4/14391/14391 
***********************************************

************* 2/5/2021 11:38:09 AM *************
Indexer|4|etextcatalogindex34r|4|14391|Manually|http://localhost:44762/|2|14391|PREVIEW|bG9jYWxob3N0OjY3NjZ8|0|600000
***********************************************

************* 2/5/2021 11:38:13 AM *************
2/5/2021 11:38:13 AM-- API Call Success.------API called http://localhost:44762//search/createindex/etextcatalogindex34r/PRODUCTION/4/14392/14392 
***********************************************

************* 2/5/2021 11:38:13 AM *************
Indexer|4|etextcatalogindex34r|4|14392|Manually|http://localhost:44762/|2|14392|PRODUCTION|bG9jYWxob3N0OjY3NjZ8|0|600000
***********************************************

************* 2/5/2021 11:49:40 AM *************
2/5/2021 11:49:40 AM-- API Call Success.------API called http://localhost:44762//search/createindex/etextcatalogindex34r/PREVIEW/4/14393/14393 
***********************************************

************* 2/5/2021 11:49:40 AM *************
Indexer|4|etextcatalogindex34r|4|14393|Manually|http://localhost:44762/|2|14393|PREVIEW|bG9jYWxob3N0OjY3NjZ8|0|600000
***********************************************

************* 2/5/2021 11:49:43 AM *************
2/5/2021 11:49:43 AM-- API Call Success.------API called http://localhost:44762//search/createindex/etextcatalogindex34r/PRODUCTION/4/14394/14394 
***********************************************

************* 2/5/2021 11:49:43 AM *************
Indexer|4|etextcatalogindex34r|4|14394|Manually|http://localhost:44762/|2|14394|PRODUCTION|bG9jYWxob3N0OjY3NjZ8|0|600000
***********************************************
